0
1
0
1
1
2
3
2
4
3
9
8
8
13
19
16
16
23
20
20
22
30
46
31
32
32
44
43
55
52
51
54
46
62
72
83
68
78
85
111
96
95
95
94
105
105
122
134
131
127
179
166
145
169
167
167
145
194
183
193
210
199
235
242
225
245
232
234
259
255
264
283
281
287
309
270
333
322
313
339
339
344
306
356
349
356
393
362
406
396
401
426
429
407
392
475
440
431
430
464
455
443
449
427
486
491
471
467
513
523
529
496
536
496
522
495
534
539
546
587
585
540
518
565
575
569
554
562
647
589
640
606
596
620
570
610
627
633
606
598
568
657
610
575
676
641
628
623
638
631
601
675
620
684
673
628
643
610
657
625
612
634
643
642
632
598
605
584
630
658
673
644
639
612
620
609
605
628
618
606
599
615
629
545
600
580
617
597
523
550
602
591
585
543
578
586
531
518
546
567
496
525
515
504
500
536
495
480
435
474
483
479
466
435
455
448
478
410
428
432
430
423
398
406
373
388
414
380
355
365
354
342
320
340
313
312
289
330
287
301
259
257
300
267
269
235
234
229
213
270
220
242
206
183
197
190
170
172
155
192
167
168
159
142
134
147
135
125
142
127
121
109
108
77
102
78
88
83
78
69
63
62
66
59
58
45
43
33
45
42
40
27
30
29
22
20
17
16
12
8
11
15
7
5
5
5
6
3
3
1
0
0
0
0
0
count = 100000
reject = 27447
